\relax 
\providecommand\hyper@newdestlabel[2]{}
\catcode `"\active 
\AC@reset@newl@bel
\providecommand\HyperFirstAtBeginDocument{\AtBeginDocument}
\HyperFirstAtBeginDocument{\ifx\hyper@anchor\@undefined
\global\let\oldcontentsline\contentsline
\gdef\contentsline#1#2#3#4{\oldcontentsline{#1}{#2}{#3}}
\global\let\oldnewlabel\newlabel
\gdef\newlabel#1#2{\newlabelxx{#1}#2}
\gdef\newlabelxx#1#2#3#4#5#6{\oldnewlabel{#1}{{#2}{#3}}}
\AtEndDocument{\ifx\hyper@anchor\@undefined
\let\contentsline\oldcontentsline
\let\newlabel\oldnewlabel
\fi}
\fi}
\global\let\hyper@last\relax 
\gdef\HyperFirstAtBeginDocument#1{#1}
\providecommand\HyField@AuxAddToFields[1]{}
\providecommand\HyField@AuxAddToCoFields[2]{}
\@input{essentials/frontpage.aux}
\select@language{ngerman}
\@writefile{toc}{\select@language{ngerman}}
\@writefile{lof}{\select@language{ngerman}}
\@writefile{lot}{\select@language{ngerman}}
\@input{essentials/declaration.aux}
\@writefile{toc}{\contentsline {chapter}{\nonumberline Abbildungsverzeichnis}{2}{chapter*.3}}
\citation{mitchell1997machine}
\citation{Goodfellow-et-al-2016}
\citation{imageNet}
\@writefile{toc}{\contentsline {chapter}{\numberline {1}Theoretischer Hintergrund}{3}{chapter.1}}
\@writefile{lol}{\addvspace {10\p@ }}
\@writefile{loa}{\addvspace {10\p@ }}
\@writefile{toc}{\contentsline {section}{\numberline {1.1}Maschinelles Lernen}{3}{section.1.1}}
\@writefile{toc}{\contentsline {subsection}{\numberline {1.1.1}Betreutes Lernen}{3}{subsection.1.1.1}}
\citation{Goodfellow-et-al-2016}
\citation{Murphy2012MachineL}
\citation{van2009dimensionality}
\@writefile{toc}{\contentsline {subsection}{\numberline {1.1.2}Unbetreutes Lernen}{4}{subsection.1.1.2}}
\@writefile{toc}{\contentsline {section}{\numberline {1.2}Neuronale Netzwerke}{4}{section.1.2}}
\bibdata{bib/bibliography}
\@writefile{toc}{\contentsline {subsection}{\numberline {1.2.1}Abbildung nichtlinearer Funktionen}{5}{subsection.1.2.1}}
\@writefile{toc}{\contentsline {subsection}{\numberline {1.2.2}Feedforward Schritt auf Netzwerk}{5}{subsection.1.2.2}}
\@writefile{toc}{\contentsline {subsection}{\numberline {1.2.3}Training mit Backwards Propagation}{5}{subsection.1.2.3}}
\@writefile{toc}{\contentsline {subsection}{\numberline {1.2.4}Optimierungsalgorithmen}{5}{subsection.1.2.4}}
\@writefile{toc}{\contentsline {subsection}{\numberline {1.2.5}Kostenfunktionen?}{5}{subsection.1.2.5}}
\@writefile{toc}{\contentsline {section}{\numberline {1.3}Autoencodernetzwerke}{5}{section.1.3}}
\@writefile{toc}{\contentsline {subsection}{\numberline {1.3.1}Techniken zur Regularisierung}{5}{subsection.1.3.1}}
\@writefile{toc}{\contentsline {section}{\numberline {1.4}Datenregularisierung}{5}{section.1.4}}
\bibcite{mitchell1997machine}{1}
\bibcite{Goodfellow-et-al-2016}{2}
\bibcite{imageNet}{3}
\bibcite{Murphy2012MachineL}{4}
\bibcite{van2009dimensionality}{5}
\bibstyle{unsrt}
\@writefile{toc}{\contentsline {chapter}{\nonumberline Literaturverzeichnis}{6}{chapter*.4}}
\@writefile{lol}{\addvspace {10\p@ }}
\@writefile{loa}{\addvspace {10\p@ }}
